\contentsline {chapter}{\numberline {1}More about Classes}{2}
\contentsline {section}{\numberline {1.1}Static members}{2}
\contentsline {section}{\numberline {1.2}Const member methods}{2}
\contentsline {chapter}{\numberline {2}UML Diagrams}{3}
